<svg width="135" height="33" viewBox="0 0 135 33" fill="none" xmlns="http://www.w3.org/2000/svg">
<path d="M24.04 17.56C30.12 17.56 33.16 19.4933 33.16 23.36C33.16 25.1733 32.7467 26.72 31.92 28C31.0933 29.2533 29.6133 30.24 27.48 30.96C25.3467 31.6533 22.3867 32 18.6 32H0.6C0.813333 26.8267 0.92 21.9867 0.92 17.48C0.92 12.9733 0.813333 8.13333 0.6 2.96H10V3H18.52C21.8267 3 24.4267 3.28 26.32 3.84C28.24 4.37333 29.5867 5.16 30.36 6.2C31.16 7.24 31.56 8.56 31.56 10.16C31.56 11.7867 30.9867 13.24 29.84 14.52C28.72 15.7733 26.7867 16.7867 24.04 17.56ZM10 10.28V14H17.68C19.3333 14 20.48 13.8533 21.12 13.56C21.7867 13.2667 22.12 12.7333 22.12 11.96C22.12 11.3467 21.7733 10.92 21.08 10.68C20.4133 10.4133 19.28 10.28 17.68 10.28H10ZM17.68 24.68C19.0667 24.68 20.12 24.6267 20.84 24.52C21.5867 24.3867 22.12 24.1733 22.44 23.88C22.76 23.56 22.92 23.1333 22.92 22.6C22.92 21.9067 22.5333 21.4133 21.76 21.12C21.0133 20.8 19.6533 20.64 17.68 20.64H10V24.68H17.68ZM45.7422 16C45.7155 17.6 45.7022 20.0533 45.7022 23.36C45.7022 27.3333 45.7289 30.2133 45.7822 32H36.3422L36.3822 27.48C36.4355 22.52 36.4622 18.6933 36.4622 16C36.4622 13.44 36.4355 9.81333 36.3822 5.12L36.3422 0.799999H45.7822C45.7289 4.58667 45.7022 7.68 45.7022 10.08C45.7022 12.7467 45.7155 14.72 45.7422 16ZM61.8784 32.4C57.3184 32.4 53.9584 31.36 51.7984 29.28C49.6651 27.1733 48.5984 24.4133 48.5984 21C48.5984 17.6667 49.6651 14.96 51.7984 12.88C53.9584 10.8 57.3184 9.76 61.8784 9.76C64.9451 9.76 67.5051 10.2667 69.5584 11.28C71.6384 12.2667 73.1718 13.6133 74.1584 15.32C75.1451 17 75.6384 18.8933 75.6384 21C75.6384 24.44 74.4918 27.2 72.1984 29.28C69.9318 31.36 66.4918 32.4 61.8784 32.4ZM62.0384 25.6C63.7718 25.6 65.0651 25.1867 65.9184 24.36C66.7718 23.5333 67.1984 22.4267 67.1984 21.04C67.1984 19.7333 66.7718 18.6667 65.9184 17.84C65.0651 16.9867 63.7718 16.56 62.0384 16.56C60.3051 16.56 59.0384 16.9733 58.2384 17.8C57.4384 18.6267 57.0384 19.7067 57.0384 21.04C57.0384 22.4267 57.4384 23.5333 58.2384 24.36C59.0384 25.1867 60.3051 25.6 62.0384 25.6ZM95.8116 9.76C97.5982 9.76 99.1849 10.3067 100.572 11.4C101.985 12.4667 103.078 13.8933 103.852 15.68C104.625 17.44 105.012 19.32 105.012 21.32C105.012 23.3467 104.625 25.2133 103.852 26.92C103.078 28.6 101.998 29.9333 100.612 30.92C99.2249 31.9067 97.6649 32.4 95.9316 32.4C93.9049 32.4 92.1449 31.9733 90.6516 31.12C89.1582 30.24 88.0382 28.8667 87.2916 27L86.1316 32H78.4516C78.6116 26.9867 78.6916 21.8 78.6916 16.44C78.6916 11.0267 78.6116 5.84 78.4516 0.879998H87.4916L87.3716 5.8C87.2382 9.26667 87.1716 12.36 87.1716 15.08C87.8916 13.2667 88.9849 11.9333 90.4516 11.08C91.9449 10.2 93.7316 9.76 95.8116 9.76ZM91.7316 25.68C93.0116 25.68 94.0249 25.2533 94.7716 24.4C95.5182 23.5467 95.8916 22.44 95.8916 21.08C95.8916 19.8533 95.4782 18.8667 94.6516 18.12C93.8516 17.3467 92.8516 16.96 91.6516 16.96C91.0382 16.96 90.3982 17.1067 89.7316 17.4C89.0649 17.6667 88.4916 18.12 88.0116 18.76C87.5316 19.3733 87.2916 20.1467 87.2916 21.08C87.2916 22.7333 87.6649 23.92 88.4116 24.64C89.1582 25.3333 90.2649 25.68 91.7316 25.68ZM121.097 32.4C116.537 32.4 113.177 31.36 111.017 29.28C108.884 27.1733 107.817 24.4133 107.817 21C107.817 17.6667 108.884 14.96 111.017 12.88C113.177 10.8 116.537 9.76 121.097 9.76C124.164 9.76 126.724 10.2667 128.777 11.28C130.857 12.2667 132.391 13.6133 133.377 15.32C134.364 17 134.857 18.8933 134.857 21C134.857 24.44 133.711 27.2 131.417 29.28C129.151 31.36 125.711 32.4 121.097 32.4ZM121.257 25.6C122.991 25.6 124.284 25.1867 125.137 24.36C125.991 23.5333 126.417 22.4267 126.417 21.04C126.417 19.7333 125.991 18.6667 125.137 17.84C124.284 16.9867 122.991 16.56 121.257 16.56C119.524 16.56 118.257 16.9733 117.457 17.8C116.657 18.6267 116.257 19.7067 116.257 21.04C116.257 22.4267 116.657 23.5333 117.457 24.36C118.257 25.1867 119.524 25.6 121.257 25.6Z" fill="#FFEFF6"/>
</svg>
